<svg version="1.1" xmlns="http://www.w3.org/2000/svg" xmlns:xlink="http://www.w3.org/1999/xlink" x="0px" y="0px" width="34.99px"
	 height="35px" viewBox="0 0 34.99 35" style="enable-background:new 0 0 34.99 35;" xml:space="preserve">
<style type="text/css">
	.st0{fill-rule:evenodd;clip-rule:evenodd;fill:#FFFFFF;}
</style>
<defs>
</defs>
<path class="st0" d="M23.89,5.83c-0.32,0-0.58-0.26-0.58-0.58v-3.5c0-0.32-0.26-0.58-0.58-0.58H1.75c-0.32,0-0.58,0.26-0.58,0.58
	v31.5c0,0.32,0.26,0.58,0.58,0.58h20.97c0.32,0,0.58-0.26,0.58-0.58v-14c0-0.32,0.26-0.58,0.58-0.58c0.32,0,0.58,0.26,0.58,0.58v14
	c0,0.97-0.78,1.75-1.75,1.75H1.75C0.78,35,0,34.22,0,33.25V1.75C0,0.78,0.78,0,1.75,0h20.97c0.97,0,1.75,0.78,1.75,1.75v3.5
	C24.47,5.57,24.21,5.83,23.89,5.83z M5.24,8.75h13.98c0.32,0,0.58,0.26,0.58,0.58c0,0.32-0.26,0.58-0.58,0.58H5.24
	c-0.32,0-0.58-0.26-0.58-0.58C4.66,9.01,4.92,8.75,5.24,8.75z M15.73,12.25c0.32,0,0.58,0.26,0.58,0.58s-0.26,0.58-0.58,0.58H5.24
	c-0.32,0-0.58-0.26-0.58-0.58s0.26-0.58,0.58-0.58H15.73z M5.24,5.25h13.98c0.32,0,0.58,0.26,0.58,0.58c0,0.32-0.26,0.58-0.58,0.58
	H5.24c-0.32,0-0.58-0.26-0.58-0.58C4.66,5.51,4.92,5.25,5.24,5.25z M33.78,3.58c-0.16-0.6-0.63-1.08-1.24-1.24
	c-0.6-0.16-1.25,0.01-1.69,0.45l-1.65,1.65l2.47,2.48l1.65-1.65h0C33.77,4.83,33.94,4.19,33.78,3.58z M27.43,6.23L29.9,8.7
	l0.95-0.95l-2.47-2.48L27.43,6.23z M7.37,26.31l2.47,2.47L29.08,9.52l-2.47-2.47L7.37,26.31z M5.18,30.98l3.64-1.56l-2.08-2.08
	L5.18,30.98z M34.15,6.1l-3.84,3.84L10.26,30.02c-0.01,0.01-0.01,0.01-0.02,0.01c-0.05,0.05-0.1,0.08-0.16,0.11l-0.01,0l-5.76,2.47
	c-0.07,0.03-0.15,0.05-0.23,0.05c-0.2,0-0.38-0.1-0.49-0.26c-0.11-0.16-0.13-0.37-0.05-0.55l2.47-5.76l0-0.01
	c0.03-0.06,0.06-0.12,0.11-0.16c0.01-0.01,0.01-0.01,0.01-0.02L26.2,5.81l3.84-3.84l0,0c1.14-1.13,2.98-1.13,4.11,0.01
	C35.27,3.12,35.28,4.96,34.15,6.1z"/>
</svg>
