<svg version="1.1" xmlns="http://www.w3.org/2000/svg" xmlns:xlink="http://www.w3.org/1999/xlink" x="0px" y="0px" width="460px"
	 height="257.66px" viewBox="0 0 460 257.66" style="enable-background:new 0 0 460 257.66;" xml:space="preserve">
<style type="text/css">
	.st0{fill:#FFFFFF;}
</style>
<defs>
</defs>
<g>
	<path class="st0" d="M69.99,218.82h143.21c10,0,18.14-8.12,18.14-18.11V18.11c0-9.99-8.14-18.11-18.14-18.11h-99.54
		c-0.12,0-0.23,0.03-0.35,0.03c-0.18,0.01-0.36,0.02-0.54,0.05c-0.16,0.03-0.31,0.08-0.47,0.12c-0.16,0.04-0.31,0.08-0.47,0.14
		c-0.16,0.06-0.31,0.14-0.46,0.22c-0.14,0.07-0.28,0.14-0.41,0.22c-0.16,0.1-0.3,0.22-0.44,0.33c-0.09,0.07-0.19,0.13-0.27,0.2
		L53.48,53.86c-1.02,0.95-1.6,2.28-1.6,3.67v143.18C51.88,210.7,60,218.82,69.99,218.82z M221.34,18.11v182.6
		c0,4.4-3.73,8.11-8.14,8.11H69.99c-4.4,0-8.11-3.71-8.11-8.11V64.31h47.42c6.64,0,12.04-5.4,12.04-12.04V10h91.87
		C217.62,10,221.34,13.71,221.34,18.11z M111.34,13.96v38.31c0,1.09-0.95,2.04-2.04,2.04H67.73L111.34,13.96z"/>
	<path class="st0" d="M279.77,200.61c8.68,0,15.11-1.69,19.32-5c4.19-3.33,6.31-8.58,6.31-15.74c0-7.12-2.07-12.43-6.18-15.86
		c-4.12-3.43-10.65-5.17-19.62-5.17h-20.3v59.1h9.97v-17.33H279.77z M269.27,191.56v-23.69h10.13c5.45,0,9.39,0.84,11.95,2.53
		c2.54,1.69,3.79,4.59,3.79,8.68s-0.99,7.2-2.98,9.33c-2.02,2.08-5.78,3.14-11.3,3.14H269.27z"/>
	<path class="st0" d="M370.4,188.11c0-9.2-2.84-16.4-8.54-21.52c-5.69-5.19-13.84-7.75-24.44-7.75h-20.29v59.1h19.62
		c11.4,0,19.85-2.67,25.38-8.03C367.64,204.55,370.4,197.27,370.4,188.11z M354.65,203.46c-3.82,3.39-9.31,5.1-16.46,5.1h-11.07
		v-40.52h9.97c15.49,0,23.25,6.79,23.25,20.31C360.35,195.01,358.45,200.03,354.65,203.46z"/>
	<polygon class="st0" points="422.57,168.14 422.66,158.84 383.25,158.84 383.25,217.94 393.22,217.94 393.22,193.59 419.44,193.59 
		419.44,184.37 393.22,184.37 393.22,168.14 	"/>
	<path class="st0" d="M435.71,119.09H259.77c-2.76,0-5,2.24-5,5s2.24,5,5,5h175.93c7.88,0,14.29,6.41,14.29,14.29v90.01
		c0,7.87-6.41,14.27-14.29,14.27c0,0,0,0-0.01,0H24.29c-7.88,0-14.29-6.4-14.29-14.27v-90.01c0-7.88,6.41-14.29,14.29-14.29
		c2.76,0,5-2.24,5-5s-2.24-5-5-5C10.9,119.09,0,129.99,0,143.39v90.01c0,0,0,0,0,0c0,13.38,10.9,24.27,24.29,24.27h411.4
		c0,0,0.01,0,0.01,0c13.4,0,24.29-10.89,24.29-24.27v-90.01C460,129.99,449.1,119.09,435.71,119.09z"/>
	<path class="st0" d="M176.78,141.99l-28.43,28.44V65.71c0-2.76-2.24-5-5-5s-5,2.24-5,5v104.72l-31.91-31.93
		c-1.95-1.95-5.12-1.95-7.07,0c-1.95,1.95-1.95,5.12,0,7.07l40.45,40.47c0.23,0.23,0.49,0.44,0.76,0.62
		c0.01,0.01,0.01,0.01,0.02,0.02c0.01,0.01,0.03,0.01,0.04,0.02c0.1,0.07,0.21,0.11,0.32,0.17c0.16,0.09,0.31,0.18,0.48,0.25
		c0.17,0.07,0.34,0.11,0.51,0.16c0.14,0.04,0.28,0.1,0.42,0.12c0.32,0.06,0.65,0.1,0.98,0.1c0.33,0,0.66-0.03,0.98-0.1
		c0.15-0.03,0.28-0.08,0.42-0.13c0.17-0.05,0.35-0.09,0.51-0.16c0.16-0.07,0.31-0.16,0.46-0.24c0.13-0.07,0.27-0.13,0.4-0.22
		c0.27-0.18,0.52-0.39,0.75-0.62c0,0,0.01,0,0.01-0.01l36.97-36.98c1.95-1.95,1.95-5.12,0-7.07
		C181.9,140.03,178.73,140.03,176.78,141.99z"/>
</g>
</svg>
