<svg xmlns="http://www.w3.org/2000/svg" style="width:0;height:0;visibility:hidden;">
    <symbol  viewBox="0 0 19 20" id="upload-icon">
        <title>upload-icon</title>
        <path class="st0" d="M17.9,11.7c-0.6,0-1.1,0.5-1.1,1.1v4.9H2.2v-4.9c0-0.6-0.5-1.1-1.1-1.1c-0.6,0-1.1,0.5-1.1,1.1v6
            C0,19.5,0.5,20,1.1,20h16.8c0.6,0,1.1-0.5,1.1-1.1v-6C19,12.2,18.5,11.7,17.9,11.7z M5.9,6.4l2.5-2.6v9.6c0,0.6,0.5,1.1,1.1,1.1
            c0.6,0,1.1-0.5,1.1-1.1V3.8l2.5,2.6c0.2,0.2,0.5,0.3,0.8,0.3c0.3,0,0.6-0.1,0.8-0.3c0.4-0.4,0.4-1.1,0-1.6l-4.4-4.5
            C10.1,0.1,9.8,0,9.5,0C9.2,0,8.9,0.1,8.7,0.3L4.3,4.8C3.9,5.3,3.9,6,4.3,6.4C4.7,6.9,5.4,6.9,5.9,6.4z"/>
    </symbol>
</svg>