<svg version="1.1" xmlns="http://www.w3.org/2000/svg" xmlns:xlink="http://www.w3.org/1999/xlink" x="0px" y="0px"
	 width="453.54px" height="255.12px" viewBox="0 0 453.54 255.12" style="enable-background:new 0 0 453.54 255.12;"
	 xml:space="preserve">
<style type="text/css">
	.st0{fill:#1B2550;}
	.st1{fill:#19BAD0;}
</style>
<defs>
</defs>
<rect class="st0" width="453.54" height="255.12"/>
<path class="st1" d="M289,153.33c-9.58-9.58-20.99-16.68-33.44-20.98c13.33-9.18,22.09-24.55,22.09-41.92
	c0-28.05-22.82-50.88-50.87-50.88c-28.05,0-50.88,22.82-50.88,50.88c0,17.38,8.76,32.74,22.09,41.92
	c-12.45,4.29-23.86,11.39-33.44,20.98c-16.62,16.62-25.77,38.72-25.77,62.23h13.75c0-40.94,33.31-74.25,74.25-74.25
	c40.94,0,74.25,33.31,74.25,74.25h13.75C314.77,192.05,305.62,169.95,289,153.33z M226.77,127.56c-20.47,0-37.12-16.65-37.12-37.12
	c0-20.47,16.65-37.12,37.12-37.12s37.12,16.65,37.12,37.12C263.9,110.91,247.24,127.56,226.77,127.56z"/>
</svg>
